…
logit_model
```

    ## # A tibble: 188 × 9
    ##    city_state term  estimate std.error statistic p.value    OR CI_lower CI_upper
    ##    <chr>      <chr>    <dbl>     <dbl>     <dbl>   <dbl> <dbl>    <dbl>    <dbl>
    ##  1 Albuquerq… (Int…  6.12e-1   0.632    0.969    3.33e-1 1.84     0.534    6.37 
    ##  2 Albuquerq… vict… -1.97e-2   0.00909 -2.16     3.04e-2 0.981    0.963    0.998
    ##  3 Albuquerq… vict…  4.12e-1   0.416    0.990    3.22e-1 1.51     0.668    3.41 
    ##  4 Albuquerq… vict…  5.70e-1   0.385    1.48     1.39e-1 1.77     0.831    3.76 
    ##  5 Atlanta, … (Int…  8.69e-1   0.242    3.60     3.21e-4 2.39     1.49     3.83 
    ##  6 Atlanta, … vict… -1.16e-2   0.00466 -2.50     1.24e-2 0.988    0.979    0.997
    ##  7 Atlanta, … vict…  2.69e-1   0.284    0.945    3.45e-1 1.31     0.749    2.28 
    ##  8 Atlanta, … vict…  7.71e-5   0.194    0.000397 1.00e+0 1.00     0.684    1.46 
    ##  9 Baltimore… (Int…  3.10e-1   0.171    1.81     7.04e-2 1.36     0.975    1.91 
    ## 10 Baltimore… vict… -6.73e-3   0.00332 -2.02     4.30e-2 0.993    0.987    1.00 
    ## # ℹ 178 more rows
…
